recitation4/simulation/qsim/sml.msim.vcd
$comment
	File created using the following command:
		vcd file sml.msim.vcd -direction
$end
$date
	Wed Sep 22 17:51:21 2021
$end
$version
	ModelSim Version 10.4d
$end
$timescale
	1ps
$end

$scope module sml_vlg_vec_tst $end
$var reg 1 ! clk $end
$var reg 1 " w $end
$var wire 1 # out $end

$scope module i1 $end
$var wire 1 $ gnd $end
$var wire 1 % vcc $end
$var wire 1 & unknown $end
$var tri1 1 ' devclrn $end
$var tri1 1 ( devpor $end
$var tri1 1 ) devoe $end
$var wire 1 * out~output_o $end
$var wire 1 + clk~input_o $end
$var wire 1 , clk~inputclkctrl_outclk $end
$var wire 1 - w~input_o $end
$var wire 1 . stateMealy_reg.zero~0_combout $end
$var wire 1 / stateMealy_reg.zero~q $end
$var wire 1 0 Selector1~0_combout $end
$var wire 1 1 stateMealy_reg.one~q $end
$var wire 1 2 Selector2~0_combout $end
$var wire 1 3 stateMealy_reg.two~q $end
$var wire 1 4 Selector3~0_combout $end
$var wire 1 5 stateMealy_reg.three~q $end
$var wire 1 6 Selector4~0_combout $end
$var wire 1 7 stateMealy_reg.four~q $end
$var wire 1 8 out~0_combout $end
$upscope $end
$upscope $end
$enddefinitions $end
#0
$dumpvars
0!
1"
0#
0$
1%
x&
1'
1(
1)
0*
0+
0,
1-
1.
0/
10
01
02
03
04
05
06
07
08
$end
#15000
1!
1+
1,
11
1/
12
00
#30000
0!
0+
0,
#45000
1!
1+
1,
13
01
14
02
#60000
0!
0+
0,
#75000
1!
1+
1,
15
03
16
04
#90000
0!
0+
0,
#105000
1!
1+
1,
17
05
18
06
0.
1*
1#
#120000
0!
0+
0,
#135000
1!
1+
1,
07
0/
08
1.
10
0*
0#
#150000
0!
0+
0,
#165000
1!
1+
1,
11
1/
12
00
#180000
0!
0+
0,
#195000
1!
1+
1,
13
01
14
02
#210000
0!
0+
0,
#225000
1!
1+
1,
15
03
16
04
#240000
0!
0+
0,
#255000
1!
1+
1,
17
05
18
06
0.
1*
1#
#270000
0!
0+
0,
#285000
1!
1+
1,
07
0/
08
1.
10
0*
0#
#300000
0!
0+
0,
#315000
1!
1+
1,
11
1/
12
00
#330000
0!
0+
0,
#345000
1!
1+
1,
13
01
14
02
#360000
0!
0+
0,
#375000
1!
1+
1,
15
03
16
04
#390000
0"
0!
0-
0+
0,
06
14
#405000
1!
1+
1,
#420000
0!
0+
0,
#435000
1!
1+
1,
#450000
0!
0+
0,
#465000
1!
1+
1,
#480000
0!
0+
0,
#495000
1!
1+
1,
#510000
0!
0+
0,
#525000
1!
1+
1,
#540000
0!
0+
0,
#555000
1!
1+
1,
#570000
0!
0+
0,
#585000
1!
1+
1,
#600000
0!
0+
0,
#615000
1!
1+
1,
#630000
0!
0+
0,
#645000
1!
1+
1,
#660000
0!
0+
0,
#675000
1!
1+
1,
#680000
1"
1-
16
04
#690000
0!
0+
0,
#705000
1!
1+
1,
17
05
18
06
0.
1*
1#
#720000
0!
0+
0,
#735000
1!
1+
1,
07
0/
08
1.
10
0*
0#
#750000
0!
0+
0,
#765000
1!
1+
1,
11
1/
12
00
#780000
0!
0+
0,
#795000
1!
1+
1,
13
01
14
02
#810000
0!
0+
0,
#825000
1!
1+
1,
15
03
16
04
#840000
0!
0+
0,
#855000
1!
1+
1,
17
05
18
06
0.
1*
1#
#870000
0!
0+
0,
#885000
1!
1+
1,
07
0/
08
1.
10
0*
0#
#900000
0!
0+
0,
#915000
1!
1+
1,
11
1/
12
00
#930000
0!
0+
0,
#945000
1!
1+
1,
13
01
14
02
#960000
0!
0+
0,
#975000
1!
1+
1,
15
03
16
04
#990000
0"
0!
0-
0+
0,
06
14
